[
  {
    "id": "WS20180001",
    "ch_count":1,
    "UTC": 1545619895216,
    "Time": "2018-12-24T02:51:37.248Z",
    "sampling": 1000,
    "payload": [
                  {
                    "ch": "1",
                    "data": [
                              -0.013834,-0.014808,-0.009342,-0.014198,-0.004741,-0.012261,-0.009068,-0.014488,-0.000868,0.001843,0.015067,0.006226,0.002877,-0.007149,0.001009,-0.00777,-0.00765,-0.017864,-0.011226,-0.015476,-0.006022,-0.012309,-0.009867,-0.015506,-0.003842,-0.008885,-0.007068,-0.019124,-0.014331,-0.016055,-0.00125,-0.003735,-0.0014,-0.009535,-0.001484,-0.012481,-0.015369,-0.027647,-0.020341,-0.022609,-0.011648,-0.019621,-0.022239,-0.034437,-0.028128,-0.037793,-0.038985,-0.050434,-0.043468,-0.044659,-0.031046,-0.034427,-0.031883,-0.039906,-0.032817,-0.041857,-0.038765,-0.045195,-0.03607,-0.038574,-0.027152,-0.033336,-0.032332,-0.038464,-0.025121,-0.028649,-0.025977,-0.037115,-0.031259,-0.036121,-0.027119,-0.03245,-0.026203,-0.026494,-0.011026,-0.01706,-0.018638,-0.032196,-0.027007,-0.028963,-0.011668,-0.009694,-0.000875,-0.003268,0.006784,-0.003438,-0.006119,-0.017213,-0.00564,-0.001246,0.01639,0.01442,0.016491,0.007499,0.012504,-0.000866,-0.004804,-0.016308,-0.007454,-0.008481,0.003636,-0.002573,-0.002795,-0.011461,-0.002893,-0.010408,-0.0079,-0.015598,-0.006448,-0.009402,-0.000578,-0.010276,-0.013056,-0.023551,-0.016373,-0.02595,-0.026776,-0.03952,-0.035609,-0.041344,-0.031104,-0.035805,-0.03229,-0.036389,-0.024675,-0.031357,-0.032197,-0.046328,-0.041649,-0.043957,-0.030654,-0.034196,-0.032194,-0.040795,-0.033875,-0.043597,-0.043601,-0.052244,-0.041831,-0.041096,-0.027568,-0.03169,-0.027907,-0.031116,-0.015845,-0.017051,-0.011581,-0.019941,-0.014654,-0.021638,-0.013926,-0.020014,-0.01718,-0.022939,-0.012621,-0.020605,-0.021628,-0.034538,-0.028261,-0.029077,-0.013147,-0.014256,-0.009381,-0.01266,0.001536,-0.001171,0.003188,-0.005285,0.001889,-0.002144,0.007131,0.000881,0.002271,-0.005154,0.004119,-0.005053,-0.007531,-0.021719,-0.019462,-0.026745,-0.01748,-0.020697,-0.015315,-0.019217,-0.006956,-0.010773,-0.006757,-0.016191,-0.010833,-0.01502,-0.00374,-0.007053,-0.003285,-0.01018,-0.002306,-0.013139,-0.017664,-0.033595,-0.031886,-0.038683,-0.028251,-0.031069,-0.025825,-0.030601,-0.020099,-0.029041,-0.030032,-0.038902,-0.028841,-0.02872,-0.016228,-0.022927,-0.023723,-0.033307,-0.024861,-0.032495,-0.031987,-0.04299,-0.038871,-0.047186,-0.041281,-0.047984,-0.042381,-0.041904,-0.025871,-0.030116,-0.028841,-0.03943,-0.032264,-0.034595,-0.022038,-0.024111,-0.018325,-0.022633,-0.010362,-0.017685,-0.017021,-0.025833,-0.015752,-0.015021,-0.002045,-0.007859,-0.006848,-0.013214,-0.002497,-0.008277,-0.005134,-0.011624,-0.000385,-0.001116,0.009433,0.00363,0.004753,-0.003382,0.005754,-0.000164,0.003731,-0.003688,0.004756,0.001059,0.008401,-0.002471,-0.006955,-0.018781,-0.010105,-0.016366,-0.015153,-0.025875,-0.021468,-0.027743,-0.01905,-0.024834,-0.021764,-0.025662,-0.013195,-0.007956,-0.029361,-0.013834,-0.014808,-0.009342,-0.014198,-0.004741,-0.012261,-0.009068,-0.014488,-0.000868,0.001843,0.015067,0.006226,0.002877,-0.007149,0.001009,-0.00777,-0.00765,-0.017864,-0.011226,-0.015476,-0.006022,-0.012309,-0.009867,-0.015506,-0.003842,-0.008885,-0.007068,-0.019124,-0.014331,-0.016055,-0.00125,-0.003735,-0.0014,-0.009535,-0.001484,-0.012481,-0.015369,-0.027647,-0.020341,-0.022609,-0.011648,-0.019621,-0.022239,-0.034437,-0.028128,-0.037793,-0.038985,-0.050434,-0.043468,-0.044659,-0.031046,-0.034427,-0.031883,-0.039906,-0.032817,-0.041857,-0.038765,-0.045195,-0.03607,-0.038574,-0.027152,-0.033336,-0.032332,-0.038464,-0.025121,-0.028649,-0.025977,-0.037115,-0.031259,-0.036121,-0.027119,-0.03245,-0.026203,-0.026494,-0.011026,-0.01706,-0.018638,-0.032196,-0.027007,-0.028963,-0.011668,-0.009694,-0.000875,-0.003268,0.006784,-0.003438,-0.006119,-0.017213,-0.00564,-0.001246,0.01639,0.01442,0.016491,0.007499,0.012504,-0.000866,-0.004804,-0.016308
                            ]
                  }
                ]
  }
]
